…
### Exercise 9

``` r
dn_nc <- dennys %>%
  filter(state == "NC")

lq_nc <- laquinta %>%
  filter(state == "NC")

dn_lq_nc <- full_join(dn_nc, lq_nc, by = "state")
dn_lq_nc
```

    ## # A tibble: 336 × 11
    ##    address.x     city.x state zip.x longi…¹ latit…² addre…³ city.y zip.y longi…⁴
    ##    <chr>         <chr>  <chr> <chr>   <dbl>   <dbl> <chr>   <chr>  <chr>   <dbl>
    ##  1 1 Regent Par… Ashev… NC    28806   -82.6    35.6 165 Hw… "\nBo… 28607   -81.7
    ##  2 1 Regent Par… Ashev… NC    28806   -82.6    35.6 3127 S… "\nCh… 28208   -80.9
    ##  3 1 Regent Par… Ashev… NC    28806   -82.6    35.6 4900 S… "\nCh… 28217   -80.9
    ##  4 1 Regent Par… Ashev… NC    28806   -82.6    35.6 4414 D… "\nDu… 27707   -79.0
    ##  5 1 Regent Par… Ashev… NC    28806   -82.6    35.6 1910 W… "\nDu… 27713   -78.9
    ##  6 1 Regent Par… Ashev… NC    28806   -82.6    35.6 1201 L… "\nGr… 27407   -79.9
    ##  7 1 Regent Par… Ashev… NC    28806   -82.6    35.6 1607 F… "\nCo… 28613   -81.3
    ##  8 1 Regent Par… Ashev… NC    28806   -82.6    35.6 191 Cr… "\nCa… 27518   -78.8
    ##  9 1 Regent Par… Ashev… NC    28806   -82.6    35.6 2211 S… "\nRa… 27612   -78.7
    ## 10 1 Regent Par… Ashev… NC    28806   -82.6    35.6 1001 A… "\nMo… 27560   -78.8
    ## # … with 326 more rows, 1 more variable: latitude.y <dbl>, and abbreviated
    ## #   variable names ¹​longitude.x, ²​latitude.x, ³​address.y, ⁴​longitude.y
…
### Exercise 10

``` r
dn_tx <- dennys %>%
  filter(state == "TX")

lq_tx <- laquinta %>%
  filter(state == "TX")

dn_lq_tx <- full_join(dn_tx, lq_tx, by = "state")
dn_lq_tx
```

    ## # A tibble: 47,400 × 11
    ##    address.x     city.x state zip.x longi…¹ latit…² addre…³ city.y zip.y longi…⁴
    ##    <chr>         <chr>  <chr> <chr>   <dbl>   <dbl> <chr>   <chr>  <chr>   <dbl>
    ##  1 120 East I-20 Abile… TX    79601   -99.6    32.4 3018 C… "\nAb… 79606   -99.8
    ##  2 120 East I-20 Abile… TX    79601   -99.6    32.4 3501 W… "\nAb… 79601   -99.7
    ##  3 120 East I-20 Abile… TX    79601   -99.6    32.4 14925 … "\nAd… 75254   -96.8
    ##  4 120 East I-20 Abile… TX    79601   -99.6    32.4 909 Ea… "\nAl… 78516   -98.1
    ##  5 120 East I-20 Abile… TX    79601   -99.6    32.4 2400 E… "\nAl… 78332   -98.0
    ##  6 120 East I-20 Abile… TX    79601   -99.6    32.4 1220 N… "\nAl… 75013   -96.7
    ##  7 120 East I-20 Abile… TX    79601   -99.6    32.4 1165 H… "\nAl… 76009   -97.2
    ##  8 120 East I-20 Abile… TX    79601   -99.6    32.4 880 So… "\nAl… 77511   -95.2
    ##  9 120 East I-20 Abile… TX    79601   -99.6    32.4 1708 I… "\nAm… 79103  -102. 
    ## 10 120 East I-20 Abile… TX    79601   -99.6    32.4 9305 E… "\nAm… 79118  -102. 
    ## # … with 47,390 more rows, 1 more variable: latitude.y <dbl>, and abbreviated
    ## #   variable names ¹​longitude.x, ²​latitude.x, ³​address.y, ⁴​longitude.y
…
### Exercise 11

``` r
dn_ny <- dennys %>%
  filter(state == "NY")

lq_ny <- laquinta %>%
  filter(state == "NY")

dn_lq_ny <- full_join(dn_ny, lq_ny, by = "state")
dn_lq_ny
```

    ## # A tibble: 1,064 × 11
    ##    address.x     city.x state zip.x longi…¹ latit…² addre…³ city.y zip.y longi…⁴
    ##    <chr>         <chr>  <chr> <chr>   <dbl>   <dbl> <chr>   <chr>  <chr>   <dbl>
    ##  1 114 Wolf Road Albany NY    12205   -73.8    42.7 94 Bus… "\nAr… 10504   -73.7
    ##  2 114 Wolf Road Albany NY    12205   -73.8    42.7 8200 P… "\nBa… 14020   -78.2
    ##  3 114 Wolf Road Albany NY    12205   -73.8    42.7 581 Ha… "\nJo… 13790   -76.0
    ##  4 114 Wolf Road Albany NY    12205   -73.8    42.7 1229 A… "\nBr… 11216   -74.0
    ##  5 114 Wolf Road Albany NY    12205   -73.8    42.7 533 3r… "\nBr… 11215   -74.0
    ##  6 114 Wolf Road Albany NY    12205   -73.8    42.7 1412 P… "\nBr… 11233   -73.9
    ##  7 114 Wolf Road Albany NY    12205   -73.8    42.7 6619 T… "\nWi… 14221   -78.7
    ##  8 114 Wolf Road Albany NY    12205   -73.8    42.7 1749 R… "\nCl… 12065   -73.8
    ##  9 114 Wolf Road Albany NY    12205   -73.8    42.7 540 Sa… "\nEl… 10523   -73.8
    ## 10 114 Wolf Road Albany NY    12205   -73.8    42.7 4317 R… "\nFa… 11692   -73.8
    ## # … with 1,054 more rows, 1 more variable: latitude.y <dbl>, and abbreviated
    ## #   variable names ¹​longitude.x, ²​latitude.x, ³​address.y, ⁴​longitude.y
…
